{
  "track": "fsharp",
  "exercise": "anagram",
  "id": "182e271da6b445a28e0d57b3d2340c30",
  "url": "https://exercism.io/tracks/fsharp/exercises/anagram/solutions/182e271da6b445a28e0d57b3d2340c30",
  "handle": "heptalophos",
  "is_requester": true,
  "auto_approve": false
}