{
  "track": "fsharp",
  "exercise": "queen-attack",
  "id": "087ba5e09eca4db0ad57d3e0ffc0ec00",
  "url": "https://exercism.io/tracks/fsharp/exercises/queen-attack/solutions/087ba5e09eca4db0ad57d3e0ffc0ec00",
  "handle": "heptalophos",
  "is_requester": true,
  "auto_approve": false
}