{
  "track": "fsharp",
  "exercise": "robot-name",
  "id": "9ddbd41e452241d0aee7679f4d8da506",
  "url": "https://exercism.io/tracks/fsharp/exercises/robot-name/solutions/9ddbd41e452241d0aee7679f4d8da506",
  "handle": "heptalophos",
  "is_requester": true,
  "auto_approve": false
}