{
    "track":"fsharp",
    "exercise":"sum-of-multiples",
    "id":"ce69a4c23e8d46b99ae6e7d3a3e91607",
    "url":"https://exercism.io/tracks/fsharp/exercises/sum-of-multiples/solutions/ce69a4c23e8d46b99ae6e7d3a3e91607",
    "handle":"heptalophos",
    "is_requester":true,
    "auto_approve":false
}