{
  "track": "fsharp",
  "exercise": "nucleotide-count",
  "id": "d5b0090135cd4f70a673ef3ce33c6de5",
  "url": "https://exercism.io/tracks/fsharp/exercises/nucleotide-count/solutions/d5b0090135cd4f70a673ef3ce33c6de5",
  "handle": "heptalophos",
  "is_requester": true,
  "auto_approve": false
}